; Engine configuration file.
; It's best edited using the editor UI and not directly,
; since the parameters that go here are not all obvious.
;
; Format:
;   [section] ; section goes between []
;   param=value ; assign values to parameters

config_version=5

[application]

config/name="ADRA"
config/description="Low-poly rails shooter inspired by the likes of Panzer Dragoon and Sin & Punishment, featuring pidgeons."
run/main_scene="res://game.tscn"
config/features=PackedStringArray("4.0", "GL Compatibility")
boot_splash/bg_color=Color(0.141176, 0.141176, 0.141176, 1)

[editor]

movie_writer/movie_file="C:/git/ADRA/path.avi"
movie_writer/fps=30

[rendering]

renderer/rendering_method="gl_compatibility"
renderer/rendering_method.mobile="gl_compatibility"
